%YAML 1.1
%TAG !u! tag:unity3d.com,2011:
--- !u!114 &11400000
MonoBehaviour:
  m_ObjectHideFlags: 0
  m_CorrespondingSourceObject: {fileID: 0}
  m_PrefabInstance: {fileID: 0}
  m_PrefabAsset: {fileID: 0}
  m_GameObject: {fileID: 0}
  m_Enabled: 1
  m_EditorHideFlags: 0
  m_Script: {fileID: 11500000, guid: b05231d4bf0615145a5488102378c815, type: 3}
  m_Name: UpgradeData
  m_EditorClassIdentifier: 
  listLevelValueRangeAttack:
  - levelStat: 0
    upgradeValue: 170
  listLevelSpeedRange:
  - levelStat: 0
    upgradeValue: 4.8
  listLevelSpeedAttack:
  - levelStat: 0
    upgradeValue: 0.6
