%YAML 1.1
%TAG !u! tag:unity3d.com,2011:
--- !u!1045 &1
EditorBuildSettings:
  m_ObjectHideFlags: 0
  serializedVersion: 2
  m_Scenes:
  - enabled: 1
    path: Assets/Scenes/HomeScene.unity
    guid: 378fa138578233640b4d8ff8f84cc0cd
  - enabled: 1
    path: Assets/Scenes/GamePlayScreen.unity
    guid: 2cda990e2423bbf4892e6590ba056729
  - enabled: 1
    path: Assets/Scenes/LoadingScene.unity
    guid: 3c79878f48b388545adc6b695dc349ef
  m_configObjects: {}
